title,description,displayPriority
Elle Beauty Treat List 2016,"The winner of Best Body Pampering goes to our Grand Luxe Body Treatment. Leave stress at the door with this indulgent body treat!",5
Spa Awards 2015,"The winner of Best Face-Shaping Treatment goes to our Magic-V Contour and Intensive Hydration Therapy, which also does wonders to smooth lines and wrinkles!",4
Style Best Beauty 2015,"The winner of Best Beauty Treats goes to our Slim and Contour Tummy Trimming Treatment. Hoping to tone up your mid-second? Consider your wish granted!",3
